<?xml version="1.0" encoding="UTF-8"?>
<svg width="39px" height="45px" viewBox="0 0 39 45" version="1.1" xmlns="http://www.w3.org/2000/svg" xmlns:xlink="http://www.w3.org/1999/xlink">
    <!-- Generator: sketchtool 52.5 (67469) - http://www.bohemiancoding.com/sketch -->
    <title>7A9BFE75-6840-4A44-96B9-3847FD60E280</title>
    <desc>Created with sketchtool.</desc>
    <g id="лэндинг" stroke="none" stroke-width="1" fill="none" fill-rule="evenodd">
        <g id="Extra-large-≥1200px-(1140-px)" transform="translate(-909.000000, -2771.000000)" fill="#42515E">
            <g id="security" transform="translate(909.000000, 2771.000000)">
                <path d="M38.5625676,9.05657895 L19.8237703,0.074122807 C19.6191081,-0.0246491228 19.3800135,-0.0246491228 19.1754392,0.074122807 L0.43672973,9.05657895 C0.176641892,9.18087719 0.0117702703,9.44280702 0.0117702703,9.73105263 C0.0117702703,26.6375439 7.00427703,39.4367544 19.1957297,44.8479825 C19.2924392,44.890614 19.3966149,44.9123684 19.5000878,44.9123684 C19.6035608,44.9123684 19.7077365,44.8907018 19.8044459,44.8479825 C31.9958986,39.4367544 38.9884054,26.6368421 38.9884054,9.73105263 C38.9883176,9.44280702 38.8233581,9.18078947 38.5625676,9.05657895 Z M19.5,43.3426316 C8.17427703,38.1544737 1.63896622,26.1127193 1.51230405,10.2010526 L19.5,1.57938596 L37.4876959,10.2010526 C37.3610338,26.1127193 30.825723,38.1544737 19.5,43.3426316 Z" id="Shape" fill-rule="nonzero"></path>
                <path d="M35.5628176,11.3014035 L19.822277,3.81605263 C19.6184054,3.71877193 19.3815068,3.71877193 19.1776351,3.81605263 L3.43709459,11.3014035 C3.16725676,11.429386 2.99931081,11.7064035 3.01064189,12.005 C3.30893919,19.9686842 5.80493919,34.3376316 19.1612095,41.0886842 C19.2676689,41.1425439 19.3837905,41.1695614 19.5,41.1695614 C19.6162095,41.1695614 19.7323311,41.1426316 19.8380878,41.0886842 C33.1950608,34.3377193 35.6902703,19.9687719 35.9893581,12.0050877 C36.0006014,11.7071053 35.8334459,11.4301754 35.5628176,11.3014035 Z M19.5,39.5789474 C7.38804054,33.2395614 4.89581757,20.09 4.52927027,12.4392105 L19.5,5.32061404 L34.4707297,12.4392105 C34.1041824,20.0892982 31.6119595,33.2395614 19.5,39.5789474 Z" id="Shape" fill-rule="nonzero"></path>
                <path d="M19.4775135,12.7251754 C14.1047365,12.7251754 9.73339865,17.090614 9.73339865,22.4561404 C9.73339865,27.8216667 14.1047365,32.1871053 19.4775135,32.1871053 C24.8502905,32.1871053 29.2216284,27.8216667 29.2216284,22.4561404 C29.2216284,17.090614 24.8502905,12.7251754 19.4775135,12.7251754 Z M19.4775135,30.6900877 C14.9314662,30.6900877 11.2324392,26.9960526 11.2324392,22.4561404 C11.2324392,17.9162281 14.9314662,14.222193 19.4775135,14.222193 C24.0235608,14.222193 27.7225878,17.9162281 27.7225878,22.4561404 C27.7225878,26.9960526 24.0235608,30.6900877 19.4775135,30.6900877 Z" id="Shape" fill-rule="nonzero"></path>
                <path d="M20.9766419,21.7076316 L17.978473,21.7076316 C17.1517432,21.7076316 16.4793446,21.0362281 16.4793446,20.2105263 C16.4793446,19.3849123 17.1516554,18.7134211 17.978473,18.7134211 L22.4757703,18.7134211 C22.8894865,18.7134211 23.2252905,18.3780702 23.2252905,17.9649123 C23.2252905,17.5517544 22.8894865,17.2164035 22.4757703,17.2164035 L17.978473,17.2164035 C16.3249257,17.2164035 14.9803041,18.5592982 14.9803041,20.2105263 C14.9803041,21.8617544 16.3250135,23.2046491 17.978473,23.2046491 L20.9766419,23.2046491 C21.8033716,23.2046491 22.4757703,23.8760526 22.4757703,24.7017544 C22.4757703,25.5273684 21.8034595,26.1988596 20.9766419,26.1988596 L16.4793446,26.1988596 C16.0656284,26.1988596 15.7298243,26.5342105 15.7298243,26.9473684 C15.7298243,27.3605263 16.0656284,27.6958772 16.4793446,27.6958772 L20.9766419,27.6958772 C22.6301892,27.6958772 23.9748108,26.3529825 23.9748108,24.7017544 C23.9748108,23.0505263 22.6301014,21.7076316 20.9766419,21.7076316 Z" id="Path"></path>
                <path d="M19.4775135,15.7192982 C19.0637973,15.7192982 18.7279932,16.0546491 18.7279932,16.467807 L18.7279932,28.444386 C18.7279932,28.8575439 19.0637973,29.1928947 19.4775135,29.1928947 C19.8912297,29.1928947 20.2270338,28.8575439 20.2270338,28.444386 L20.2270338,16.467807 C20.2270338,16.0546491 19.8912297,15.7192982 19.4775135,15.7192982 Z" id="Path"></path>
            </g>
        </g>
    </g>
</svg>